index
…
## Parsed with column specification:
## cols(
##   country = col_character(),
##   year = col_integer(),
##   pop = col_double(),
##   continent = col_character(),
##   lifeExp = col_double(),
##   gdpPercap = col_double()
## )

gapminder # bc read_csv very viewable 

## # A tibble: 1,704 x 6
##        country  year      pop continent lifeExp gdpPercap
##          <chr> <int>    <dbl>     <chr>   <dbl>     <dbl>
##  1 Afghanistan  1952  8425333      Asia  28.801  779.4453
##  2 Afghanistan  1957  9240934      Asia  30.332  820.8530
##  3 Afghanistan  1962 10267083      Asia  31.997  853.1007
##  4 Afghanistan  1967 11537966      Asia  34.020  836.1971
##  5 Afghanistan  1972 13079460      Asia  36.088  739.9811
##  6 Afghanistan  1977 14880372      Asia  38.438  786.1134
##  7 Afghanistan  1982 12881816      Asia  39.854  978.0114
##  8 Afghanistan  1987 13867957      Asia  40.822  852.3959
##  9 Afghanistan  1992 16317921      Asia  41.674  649.3414
## 10 Afghanistan  1997 22227415      Asia  41.763  635.3414
## # ... with 1,694 more rows
…
## lets use the pipe for sweden example 
y <- gapminder %>% 
  filter(country== "Sweden") %>% 
  summarize(mean_lifeExp= mean(lifeExp)) # ALWAYS returns a df 
# bc of that we had to create a new column "mean_lifeExp" and can view classes
# "take the  gapminder data, filter by sweden and then take mean of life exp

select by columns with select function

## select 2 columns
select(gapminder, year, lifeExp) # returns the same amount of rows, but only 2 columns

## # A tibble: 1,704 x 2
##     year lifeExp
##    <int>   <dbl>
##  1  1952  28.801
##  2  1957  30.332
##  3  1962  31.997
##  4  1967  34.020
##  5  1972  36.088
##  6  1977  38.438
##  7  1982  39.854
##  8  1987  40.822
##  9  1992  41.674
## 10  1997  41.763
## # ... with 1,694 more rows
…
## # A tibble: 1 x 6
##   country  year       pop continent lifeExp gdpPercap
##     <chr> <int>     <dbl>     <chr>   <dbl>     <dbl>
## 1  Mexico  2002 102479927  Americas  74.902  10742.44

# if not indented, auto indent ORkeyboard shortbut select code and goto command i- will re indent line (will work for whole script of selected text)

mutate() to add columns

## mutate can add a new column
gapminder %>%
  mutate(gdp= pop*gdpPercap) # this adds a new column with our new column 

## # A tibble: 1,704 x 7
##        country  year      pop continent lifeExp gdpPercap         gdp
##          <chr> <int>    <dbl>     <chr>   <dbl>     <dbl>       <dbl>
##  1 Afghanistan  1952  8425333      Asia  28.801  779.4453  6567086330
##  2 Afghanistan  1957  9240934      Asia  30.332  820.8530  7585448670
##  3 Afghanistan  1962 10267083      Asia  31.997  853.1007  8758855797
##  4 Afghanistan  1967 11537966      Asia  34.020  836.1971  9648014150
##  5 Afghanistan  1972 13079460      Asia  36.088  739.9811  9678553274
##  6 Afghanistan  1977 14880372      Asia  38.438  786.1134 11697659231
##  7 Afghanistan  1982 12881816      Asia  39.854  978.0114 12598563401
##  8 Afghanistan  1987 13867957      Asia  40.822  852.3959 11820990309
##  9 Afghanistan  1992 16317921      Asia  41.674  649.3414 10595901589
## 10 Afghanistan  1997 22227415      Asia  41.763  635.3414 14121995875
## # ... with 1,694 more rows
…
# in operator lets you filter multiple things c() within a c bind
gapminder %>%
  filter(country %in% c("Egypt", "Vietnam"))

## # A tibble: 24 x 6
##    country  year      pop continent lifeExp gdpPercap
##      <chr> <int>    <dbl>     <chr>   <dbl>     <dbl>
##  1   Egypt  1952 22223309    Africa  41.893  1418.822
##  2   Egypt  1957 25009741    Africa  44.444  1458.915
##  3   Egypt  1962 28173309    Africa  46.992  1693.336
##  4   Egypt  1967 31681188    Africa  49.293  1814.881
##  5   Egypt  1972 34807417    Africa  51.137  2024.008
##  6   Egypt  1977 38783863    Africa  53.319  2785.494
##  7   Egypt  1982 45681811    Africa  56.006  3503.730
##  8   Egypt  1987 52799062    Africa  59.797  3885.461
##  9   Egypt  1992 59402198    Africa  63.674  3794.755
## 10   Egypt  1997 66134291    Africa  67.217  4173.182
## # ... with 14 more rows
…
gapminder %>%
  filter(country %in% c("Egypt", "Vietnam")) %>%
  summarize(max(gdpPercap)) # this created only one value... this was not what she was looking for, see below:

## # A tibble: 1 x 1
##   `max(gdpPercap)`
##              <dbl>
## 1         5581.181

  gapminder %>%
  filter(country %in% c("Egypt", "Vietnam")) %>%
  mutate(max_gdpPerCap=max(gdpPercap)) # creates a new column with all of these values

## # A tibble: 24 x 7
##    country  year      pop continent lifeExp gdpPercap max_gdpPerCap
##      <chr> <int>    <dbl>     <chr>   <dbl>     <dbl>         <dbl>
##  1   Egypt  1952 22223309    Africa  41.893  1418.822      5581.181
##  2   Egypt  1957 25009741    Africa  44.444  1458.915      5581.181
##  3   Egypt  1962 28173309    Africa  46.992  1693.336      5581.181
##  4   Egypt  1967 31681188    Africa  49.293  1814.881      5581.181
##  5   Egypt  1972 34807417    Africa  51.137  2024.008      5581.181
##  6   Egypt  1977 38783863    Africa  53.319  2785.494      5581.181
##  7   Egypt  1982 45681811    Africa  56.006  3503.730      5581.181
##  8   Egypt  1987 52799062    Africa  59.797  3885.461      5581.181
##  9   Egypt  1992 59402198    Africa  63.674  3794.755      5581.181
## 10   Egypt  1997 66134291    Africa  67.217  4173.182      5581.181
## # ... with 14 more rows
…
## # A tibble: 2 x 2
##   country max_gdpPercap
##     <chr>         <dbl>
## 1   Egypt      5581.181
## 2 Vietnam      2441.576

  # mutate(max_gdpPerCap= max(gdpPerCap)) 
# this returns the max from each country 
# could also do this without assigning a name, but it uses a column name based on your function 

gapminder %>%
  group_by(country) %>%
  summarize(max_gdpPercap=max(gdpPercap))

## # A tibble: 142 x 2
##        country max_gdpPercap
##          <chr>         <dbl>
##  1 Afghanistan      978.0114
##  2     Albania     5937.0295
##  3     Algeria     6223.3675
##  4      Angola     5522.7764
##  5   Argentina    12779.3796
##  6   Australia    34435.3674
##  7     Austria    36126.4927
##  8     Bahrain    29796.0483
##  9  Bangladesh     1391.2538
## 10     Belgium    33692.6051
## # ... with 132 more rows

## lets keep the year associated with max gdp variable max_gdpPecap
gapminder %>%
  group_by(country) %>%
  mutate(max_gdpPercap= max(gdpPercap)) %>%
  filter(max_gdpPercap == max(gdpPercap))

## # A tibble: 1,704 x 7
## # Groups:   country [142]
##        country  year      pop continent lifeExp gdpPercap max_gdpPercap
##          <chr> <int>    <dbl>     <chr>   <dbl>     <dbl>         <dbl>
##  1 Afghanistan  1952  8425333      Asia  28.801  779.4453      978.0114
##  2 Afghanistan  1957  9240934      Asia  30.332  820.8530      978.0114
##  3 Afghanistan  1962 10267083      Asia  31.997  853.1007      978.0114
##  4 Afghanistan  1967 11537966      Asia  34.020  836.1971      978.0114
##  5 Afghanistan  1972 13079460      Asia  36.088  739.9811      978.0114
##  6 Afghanistan  1977 14880372      Asia  38.438  786.1134      978.0114
##  7 Afghanistan  1982 12881816      Asia  39.854  978.0114      978.0114
##  8 Afghanistan  1987 13867957      Asia  40.822  852.3959      978.0114
##  9 Afghanistan  1992 16317921      Asia  41.674  649.3414      978.0114
## 10 Afghanistan  1997 22227415      Asia  41.763  635.3414      978.0114
## # ... with 1,694 more rows

## another way to create the same thing
gapminder %>%
  group_by(country) %>%
  #mutate(max_gdpPercap= max(gdpPercap)) %>%
  filter(gdpPercap == max(gdpPercap))

## # A tibble: 142 x 6
## # Groups:   country [142]
##        country  year       pop continent lifeExp  gdpPercap
##          <chr> <int>     <dbl>     <chr>   <dbl>      <dbl>
##  1 Afghanistan  1982  12881816      Asia  39.854   978.0114
##  2     Albania  2007   3600523    Europe  76.423  5937.0295
##  3     Algeria  2007  33333216    Africa  72.301  6223.3675
##  4      Angola  1967   5247469    Africa  35.985  5522.7764
##  5   Argentina  2007  40301927  Americas  75.320 12779.3796
##  6   Australia  2007  20434176   Oceania  81.235 34435.3674
##  7     Austria  2007   8199783    Europe  79.829 36126.4927
##  8     Bahrain  2007    708573      Asia  75.635 29796.0483
##  9  Bangladesh  2007 150448339      Asia  64.062  1391.2538
## 10     Belgium  2007  10392226    Europe  79.441 33692.6051
## # ... with 132 more rows

  gapminder %>%
  group_by(country) %>%
  mutate(max_gdpPercap= max(gdpPercap)) %>%
  filter(max_gdpPercap == max(gdpPercap))%>%
  arrange(max_gdpPercap) # if you want descending order, use arrange(desc(max_gdpPercap))

## # A tibble: 1,704 x 7
## # Groups:   country [142]
##    country  year     pop continent lifeExp gdpPercap max_gdpPercap
##      <chr> <int>   <dbl>     <chr>   <dbl>     <dbl>         <dbl>
##  1 Burundi  1952 2445618    Africa  39.031  339.2965      631.6999
##  2 Burundi  1957 2667518    Africa  40.533  379.5646      631.6999
##  3 Burundi  1962 2961915    Africa  42.045  355.2032      631.6999
##  4 Burundi  1967 3330989    Africa  43.548  412.9775      631.6999
##  5 Burundi  1972 3529983    Africa  44.057  464.0995      631.6999
##  6 Burundi  1977 3834415    Africa  45.910  556.1033      631.6999
##  7 Burundi  1982 4580410    Africa  47.471  559.6032      631.6999
##  8 Burundi  1987 5126023    Africa  48.211  621.8188      631.6999
##  9 Burundi  1992 5809236    Africa  44.736  631.6999      631.6999
## 10 Burundi  1997 6121610    Africa  45.326  463.1151      631.6999
## # ... with 1,694 more rows
…
